test.vcd
$date
Wed Jan  1 23:12:06 2025
$end
$version
Riviera-PRO Version 2023.04.112.8911
$end
$timescale
1 ns
$end

$scope module tb $end
$var wire 1 ! ready $end
$var wire 1 " mosi $end
$var wire 1 " sclk $end
$var wire 5 # cs [5:1] $end
$var wire 8 $ read_data [7:0] $end
$var wire 8 % intupt_data [7:0] $end
$var reg 1 & clk $end
$var reg 1 ' miso $end
$var reg 1 ( tx_trigger $end
$var reg 1 ) rst $end
$var reg 3 * tx_count [2:0] $end
$var reg 3 + intrpt [2:0] $end
$var reg 8 , in_data [7:0] $end
$var reg 8 - in_addr [7:0] $end

$scope module DUV $end
$var wire 8 . in_data [7:0] $end
$var wire 1 / in_addr [7] $end
$var wire 1 0 in_addr [6] $end
$var wire 1 1 in_addr [5] $end
$var wire 1 2 in_addr [4] $end
$var wire 1 3 in_addr [3] $end
$var wire 1 4 in_addr [2] $end
$var wire 1 5 in_addr [1] $end
$var wire 1 6 in_addr [0] $end
$var wire 1 7 clk $end
$var wire 1 8 rst $end
$var wire 1 9 intrpt [2] $end
$var wire 1 : intrpt [1] $end
$var wire 1 ; intrpt [0] $end
$var wire 1 < tx_trigger $end
$var wire 3 = tx_count [2:0] $end
$var wire 8 $ read_data [7:0] $end
$var wire 1 ! Pready $end
$var wire 8 > pwdata [7:0] $end
$var wire 8 ? paddr [7:0] $end
$var wire 8 @ prdata [7:0] $end
$var wire 1 A psel $end
$var wire 1 B ready $end
$var reg 8 C intrupt_data [7:0] $end

$scope module APB1 $end
$var wire 1 7 pclk $end
$var wire 1 8 prst $end
$var wire 1 / pwrite $end
$var wire 1 B pready [1:1] $end
$var wire 8 . in_data [7:0] $end
$var wire 1 / in_addr [7] $end
$var wire 1 0 in_addr [6] $end
$var wire 1 1 in_addr [5] $end
$var wire 1 2 in_addr [4] $end
$var wire 1 3 in_addr [3] $end
$var wire 1 4 in_addr [2] $end
$var wire 1 5 in_addr [1] $end
$var wire 1 6 in_addr [0] $end
$var wire 16 D prdata [15:0] $end
$var reg 1 E penable $end
$var reg 1 F p_write $end
$var reg 1 G psel [0:0] $end
$var reg 8 H pwdata [7:0] $end
$var reg 8 I paddr [7:0] $end
$var reg 1 J r_psel $end
$var reg 1 K r_pready $end
$var reg 1 L r_pwrite $end
$var reg 1 M stop $end
$var reg 8 N r_in_data [7:0] $end
$var reg 8 O r_read_data [7:0] $end
$var reg 8 P r_in_addr [7:0] $end
$var reg 1 Q slave_selected [0:0] $end
$var reg 2 R nxt_state [1:0] $end
$var parameter 32 S DATA_WIDTH [31:0] $end
$var parameter 32 T ADDRESS_WIDTH [31:0] $end
$var parameter 32 U NUMBER_OF_SLAVE [31:0] $end
$var parameter 32 V IDEAL [31:0] $end
$var parameter 32 W SETUP [31:0] $end
$var parameter 32 X ACCESS [31:0] $end
$upscope $end


$scope module SPI $end
$var wire 8 > in_data [7:0] $end
$var wire 8 ? in_addr [7:0] $end
$var wire 1 9 intrpt [2] $end
$var wire 1 : intrpt [1] $end
$var wire 1 ; intrpt [0] $end
$var wire 1 A tx_trigger $end
$var wire 1 8 rst $end
$var wire 1 7 clk $end
$var wire 3 = tx_count [2:0] $end
$var wire 8 @ read_data [7:0] $end
$var wire 1 B ready $end
$var wire 1 Y MISO $end
$var wire 1 Z MOSI $end
$var wire 1 [ sclk $end
$var wire 1 \ cs [5] $end
$var wire 1 ] cs [4] $end
$var wire 1 ^ cs [3] $end
$var wire 1 _ cs [2] $end
$var wire 1 ` cs [1] $end
$var wire 1 a inrt $end
$var reg 8 b intrupt_data [7:0] $end

$scope module spi1 $end
$var wire 1 [ sclk $end
$var wire 1 Z slave_mosi $end
$var wire 1 ^ cs $end
$var wire 1 ; in_interupt $end
$var wire 1 a out_intr $end
$var reg 1 c slave_miso $end
$var reg 8 d slave_r_data_tx [7:0] $end
$var reg 8 e slave_r_data_rx [7:0] $end
$var reg 3 f state [2:0] $end
$var reg 5 g slave_bit_count_tx [4:0] $end
$var reg 5 h slave_bit_count_rx [4:0] $end
$var reg 5 i slave_bit_count_int [4:0] $end
$var reg 1 j start $end
$var reg 1 k stop $end
$var reg 1 l intrpt $end
$var parameter 8 m TX_DATA [7:0] $end
$var parameter 8 n slave_addr [7:0] $end
$var parameter 32 o IDEAL [31:0] $end
$var parameter 32 p OPER [31:0] $end
$var parameter 32 q WRITE [31:0] $end
$var parameter 32 r READ [31:0] $end
$upscope $end


$scope module spi3 $end
$var wire 1 [ sclk $end
$var wire 1 Z slave_mosi $end
$var wire 1 ] cs $end
$var wire 1 : in_interupt $end
$var wire 1 a out_intr $end
$var reg 1 s slave_miso $end
$var reg 8 t slave_r_data_tx [7:0] $end
$var reg 8 u slave_r_data_rx [7:0] $end
$var reg 3 v state [2:0] $end
$var reg 5 w slave_bit_count_tx [4:0] $end
$var reg 5 x slave_bit_count_rx [4:0] $end
$var reg 5 y slave_bit_count_int [4:0] $end
$var reg 1 z start $end
$var reg 1 { stop $end
$var reg 1 | intrpt $end
$var parameter 8 } TX_DATA [7:0] $end
$var parameter 8 ~ slave_addr [7:0] $end
$var parameter 32 !! IDEAL [31:0] $end
$var parameter 32 "! OPER [31:0] $end
$var parameter 32 #! WRITE [31:0] $end
$var parameter 32 $! READ [31:0] $end
$upscope $end


$scope module spi2 $end
$var wire 1 7 clk $end
$var wire 8 > pwrite [7:0] $end
$var wire 8 ? paddr [7:0] $end
$var wire 1 Y MISO $end
$var wire 1 A tx_trigger $end
$var wire 1 8 rst $end
$var wire 3 = tx_count [2:0] $end
$var wire 1 a in_intrupt $end
$var reg 1 %! ready $end
$var reg 1 &! MOSI $end
$var reg 1 '! sclk $end
$var reg 8 (! read_data [7:0] $end
$var reg 8 )! intrupt_data [7:0] $end
$var reg 5 *! cs [5:1] $end
$var reg 1 +! intrupt $end
$var reg 64 ,! addr_reg [63:0] $end
$var reg 64 -! data_reg [63:0] $end
$var reg 8 .! ctrl_reg [7:0] $end
$var reg 8 /! master_r_data_inrt [7:0] $end
$var reg 4 0! count [3:0] $end
$var reg 4 1! fifo [3:0] $end
$var reg 2 2! clk_count [1:0] $end
$var reg 3 3! state [2:0] $end
$var reg 4 4! master_bit_count_int [3:0] $end
$var parameter 32 5! DATA_WIDTH [31:0] $end
$var parameter 32 6! ADDR_WIDTH [31:0] $end
$var parameter 32 7! SLAVE_SELECT [31:0] $end
$var parameter 32 8! IDEAL [31:0] $end
$var parameter 32 9! ADDRESS [31:0] $end
$var parameter 32 :! IDEAL_BTW_ADDR_DATA [31:0] $end
$var parameter 32 ;! W_DATA [31:0] $end
$var parameter 32 <! R_DATA [31:0] $end

$scope task slave_select $end
$var reg 8 =! address [7:0] $end
$var reg 5 >! cs [5:1] $end
$upscope $end

$upscope $end

$upscope $end

$upscope $end

$upscope $end

$enddefinitions $end
$dumpvars
1!
z"
bz #
bz $
b0 %
0&
x'
1(
1)
b11 *
bx +
b11001101 ,
b11010011 -
b11001101 .
1/
10
01
12
03
04
15
16
07
18
x9
x:
x;
1<
b11 =
b0 >
b0 ?
b0 @
0A
1B
b0 C
bz00000000 D
0E
xF
b0 G
b0 H
b0 I
0J
xK
xL
1M
b0 N
bx O
b0 P
b0 Q
b0 R
b1000 S
b1000 T
b1 U
b0 V
b1 W
b10 X
zY
xZ
1[
0\
0]
0^
0_
0`
za
b0 b
zc
b10101011 d
b0 e
b0 f
b0 g
b0 h
b0 i
0j
1k
0l
b10101011 m
b1010001 n
b0 o
b1 p
b10 q
b11 r
zs
b10101011 t
b0 u
b0 v
b0 w
b0 x
b0 y
0z
1{
0|
b10101011 }
b1010001 ~
b0 !!
b1 "!
b10 #!
b11 $!
1%!
x&!
1'!
b0 (!
b0 )!
b0 *!
x+!
b0 ,!
b0 -!
b110 .!
b0 /!
b0 0!
b0 1!
b0 2!
b0 3!
b0 4!
b111 5!
b111 6!
b101 7!
b0 8!
b1 9!
b11 :!
b100 ;!
b101 <!
bx =!
bx >!
$end
#1
1&
17
1F
b11010011 P
b11001101 N
1L
b1 Q
b1 R
b1 G
1E
0+!
1A
#2
0&
07
#3
1&
17
b10 R
b11001101 H
b11010011 I
b111 .!
b11010011 ?
b11001101 >
b1 1!
b1 2!
b11001101 -!
b11010011 ,!
#4
0&
07
#5
1&
17
b10 2!
#6
0&
07
#7
1&
17
0'!
b0 2!
0[
b1 3!
0%!
0B
0!
0M
#8
0&
07
#9
1&
17
b1 2!
#10
0&
07
#11
1&
17
b10 2!
#12
0&
07
#13
1&
17
1'!
b0 2!
1[
#14
0&
07
#15
1&
17
b1 2!
#16
0&
07
#17
1&
17
b10 2!
#18
0&
07
#19
1&
17
0'!
b0 2!
0[
b11010011 =!
b100 >!
b100 *!
1^
1j
0k
1&!
b11 3!
1Z
#20
0&
07
#21
1&
17
b1 2!
#22
0&
07
#23
1&
17
b10 2!
#24
0&
07
#25
1&
17
1'!
b0 2!
1[
b1 f
#26
0&
07
#27
1&
17
b1 2!
#28
0&
07
#29
1&
17
b10 2!
#30
0&
07
#31
1&
17
0'!
b0 2!
0[
b100 3!
#32
0&
07
#33
1&
17
b1 2!
#34
0&
07
#35
1&
17
b10 2!
#36
0&
07
#37
1&
17
1'!
b0 2!
1[
b11 f
#38
0&
07
#39
1&
17
b1 2!
#40
0&
07
#41
1&
17
b10 2!
#42
0&
07
#43
1&
17
0'!
b0 2!
0[
b1 0!
#44
0&
07
#45
1&
17
b1 2!
#46
0&
07
#47
1&
17
b10 2!
#48
0&
07
#49
1&
17
1'!
b0 2!
1[
b1 e
b1 h
#50
0&
07
#51
1&
17
b1 2!
#52
0&
07
#53
1&
17
b10 2!
#54
0&
07
#55
1&
17
0'!
b0 2!
0[
0&!
b10 0!
0Z
#56
0&
07
#57
1&
17
b1 2!
#58
0&
07
#59
1&
17
b10 2!
#60
0&
07
#61
1&
17
1'!
b0 2!
1[
b10 h
#62
0&
07
#63
1&
17
b1 2!
#64
0&
07
#65
1&
17
b10 2!
#66
0&
07
#67
1&
17
0'!
b0 2!
0[
1&!
b11 0!
1Z
#68
0&
07
#69
1&
17
b1 2!
#70
0&
07
#71
1&
17
b10 2!
#72
0&
07
#73
1&
17
1'!
b0 2!
1[
b101 e
b11 h
#74
0&
07
#75
1&
17
b1 2!
#76
0&
07
#77
1&
17
b10 2!
#78
0&
07
#79
1&
17
0'!
b0 2!
0[
b100 0!
#80
0&
07
#81
1&
17
b1 2!
#82
0&
07
#83
1&
17
b10 2!
#84
0&
07
#85
1&
17
1'!
b0 2!
1[
b1101 e
b100 h
#86
0&
07
#87
1&
17
b1 2!
#88
0&
07
#89
1&
17
b10 2!
#90
0&
07
#91
1&
17
0'!
b0 2!
0[
0&!
b101 0!
0Z
#92
0&
07
#93
1&
17
b1 2!
#94
0&
07
#95
1&
17
b10 2!
#96
0&
07
#97
1&
17
1'!
b0 2!
1[
b101 h
#98
0&
07
#99
1&
17
b1 2!
#100
0&
07
#101
1&
17
b10 2!
#102
0&
07
#103
1&
17
0'!
b0 2!
0[
b110 0!
#104
0&
07
#105
1&
17
b1 2!
#106
0&
07
#107
1&
17
b10 2!
#108
0&
07
#109
1&
17
1'!
b0 2!
1[
b110 h
#110
0&
07
#111
1&
17
b1 2!
#112
0&
07
#113
1&
17
b10 2!
#114
0&
07
#115
1&
17
0'!
b0 2!
0[
1&!
b111 0!
1Z
#116
0&
07
#117
1&
17
b1 2!
#118
0&
07
#119
1&
17
b10 2!
#120
0&
07
#121
1&
17
1'!
b0 2!
1[
b1001101 e
b111 h
#122
0&
07
#123
1&
17
b1 2!
#124
0&
07
#125
1&
17
b10 2!
#126
0&
07
#127
1&
17
0'!
b0 2!
0[
b1000 0!
#128
0&
07
#129
1&
17
b1 2!
#130
0&
07
#131
1&
17
b10 2!
#132
0&
07
#133
1&
17
1'!
b0 2!
1[
b11001101 e
b1000 h
#134
0&
07
#135
1&
17
b1 2!
#136
0&
07
#137
1&
17
b10 2!
#138
0&
07
#139
1&
17
0'!
b0 2!
0[
b10101 .!
b0 0!
1%!
b0 3!
b0 *!
0^
1B
1!
0j
1k
b10101101 ,
b1010100 -
0/
14
05
06
b10101101 .
#140
0&
07
#141
1&
17
0F
0E
b0 R
b1 2!
#142
0&
07
#143
1&
17
1M
b1 G
b1010100 P
b10101101 N
0L
b1 R
1E
b10 2!
#144
0&
07
#145
1&
17
b10 R
b1010100 I
bz O
b1010100 ?
b10 1!
1'!
b0 2!
b1100110111001101 -!
b101010011010011 ,!
1[
b1001 h
#146
0&
07
#147
1&
17
b1 2!
#148
0&
07
#149
b1 +
1&
17
09
0:
1;
b10 2!
1l
1a
#150
0&
07
#151
1&
17
1+!
0'!
b0 2!
b1 3!
0%!
b1 4!
0B
0[
0!
0M
b1010001 d
1c
b1 i
1Y
#152
0&
07
#153
1&
17
b1 2!
#154
0&
07
#155
1&
17
b10 2!
#156
0&
07
#157
1&
17
1'!
b0 2!
1[
b1 /!
b10 4!
#158
0&
07
#159
1&
17
b1 2!
#160
0&
07
#161
1&
17
b10 2!
#162
0&
07
#163
1&
17
0'!
b0 2!
0[
0c
b10 i
0Y
#164
0&
07
#165
1&
17
b1 2!
#166
0&
07
#167
1&
17
b10 2!
#168
0&
07
#169
1&
17
1'!
b0 2!
1[
b11 4!
#170
0&
07
#171
1&
17
b1 2!
#172
0&
07
#173
1&
17
b10 2!
#174
0&
07
#175
1&
17
0'!
b0 2!
0[
b11 i
#176
0&
07
#177
1&
17
b1 2!
#178
0&
07
#179
1&
17
b10 2!
#180
0&
07
#181
1&
17
1'!
b0 2!
1[
b100 4!
#182
0&
07
#183
1&
17
b1 2!
#184
0&
07
#185
1&
17
b10 2!
#186
0&
07
#187
1&
17
0'!
b0 2!
0[
b100 i
#188
0&
07
#189
1&
17
b1 2!
#190
0&
07
#191
1&
17
b10 2!
#192
0&
07
#193
1&
17
1'!
b0 2!
1[
b101 4!
#194
0&
07
#195
1&
17
b1 2!
#196
0&
07
#197
1&
17
b10 2!
#198
0&
07
#199
1&
17
0'!
b0 2!
0[
1c
b101 i
1Y
#200
0&
07
#201
1&
17
b1 2!
#202
0&
07
#203
1&
17
b10 2!
#204
0&
07
#205
1&
17
1'!
b0 2!
1[
b10001 /!
b110 4!
#206
0&
07
#207
1&
17
b1 2!
#208
0&
07
#209
1&
17
b10 2!
#210
0&
07
#211
1&
17
0'!
b0 2!
0[
0c
b110 i
0Y
#212
0&
07
#213
1&
17
b1 2!
#214
0&
07
#215
1&
17
b10 2!
#216
0&
07
#217
1&
17
1'!
b0 2!
1[
b111 4!
#218
0&
07
#219
1&
17
b1 2!
#220
0&
07
#221
1&
17
b10 2!
#222
0&
07
#223
1&
17
0'!
b0 2!
0[
1c
b111 i
1Y
#224
0&
07
#225
1&
17
b1 2!
#226
0&
07
#227
1&
17
b10 2!
#228
0&
07
#229
1&
17
1'!
b0 2!
1[
b1010001 /!
b1000 4!
#230
0&
07
#231
1&
17
b1 2!
#232
0&
07
#233
1&
17
b10 2!
#234
0&
07
#235
1&
17
0'!
b0 2!
0[
0c
b1000 i
0Y
#236
0&
07
#237
1&
17
b1 2!
#238
0&
07
#239
1&
17
b10 2!
#240
0&
07
#241
1&
17
1'!
b0 2!
1[
b0 4!
b1010001 )!
b1010001 b
b1010001 C
b1010001 %
#242
0&
07
#243
1&
17
b1 2!
#244
0&
07
#245
1&
17
b10 2!
#246
0&
07
#247
1&
17
0'!
b0 2!
0[
0l
b0 i
b10101011 d
za
#248
0&
07
#249
1&
17
0+!
b1 2!
#250
0&
07
#251
1&
17
b10 2!
#252
0&
07
#253
1&
17
1'!
b0 2!
1[
b0 h
b0 f
#254
0&
07
#255
1&
17
b1 2!
#256
0&
07
#257
1&
17
b10 2!
#258
0&
07
#259
1&
17
0'!
b0 2!
0[
b1010100 =!
b1000 >!
b1000 *!
1]
1z
0{
0&!
b11 3!
0Z
#260
0&
07
#261
1&
17
b1 2!
#262
0&
07
#263
1&
17
b10 2!
#264
0&
07
#265
1&
17
1'!
b0 2!
1[
zc
b0 e
b1 v
zY
#266
0&
07
#267
1&
17
b1 2!
#268
0&
07
#269
1&
17
b10 2!
#270
0&
07
#271
1&
17
0'!
b0 2!
0[
b101 3!
#272
0&
07
#273
1&
17
b1 2!
#274
0&
07
#275
1&
17
b10 2!
#276
0&
07
#277
1&
17
1'!
b0 2!
1[
b10 v
#278
0&
07
#279
1&
17
b1 2!
#280
0&
07
#281
1&
17
b10 2!
#282
0&
07
#283
1&
17
0'!
b0 2!
0[
1s
b1 w
1Y
#284
0&
07
#285
1&
17
b1 2!
#286
0&
07
#287
1&
17
b10 2!
#288
0&
07
#289
1&
17
1'!
b0 2!
1[
1%!
b1 0!
1B
1!
b11001101 ,
b11010011 -
1/
04
15
16
b11001101 .
#290
0&
07
#291
1&
17
1F
0E
b0 R
b1 2!
#292
0&
07
#293
1&
17
1M
b1 G
b11010011 P
b11001101 N
1L
b1 R
1E
b10 2!
#294
0&
07
#295
1&
17
b10 R
b11010011 I
b11010011 ?
b11 1!
0'!
b0 2!
b110011011100110111001101 -!
b110100110101010011010011 ,!
0[
b10 w
#296
0&
07
#297
1&
17
b1 2!
#298
0&
07
#299
1&
17
b10 2!
#300
0&
07
#301
1&
17
1'!
b0 2!
1[
b110011011100111111001101 -!
b10 0!
#302
0&
07
#303
1&
17
b1 2!
#304
0&
07
#305
1&
17
b10 2!
#306
0&
07
#307
1&
17
0'!
b0 2!
0[
0s
b11 w
0Y
#308
0&
07
#309
1&
17
b1 2!
#310
0&
07
#311
1&
17
b10 2!
#312
0&
07
#313
1&
17
1'!
b0 2!
1[
b110011011100101111001101 -!
b11 0!
#314
0&
07
#315
1&
17
b1 2!
#316
0&
07
#317
1&
17
b10 2!
#318
0&
07
#319
1&
17
0'!
b0 2!
0[
1s
b100 w
1Y
#320
0&
07
#321
1&
17
b1 2!
#322
0&
07
#323
1&
17
b10 2!
#324
0&
07
#325
1&
17
1'!
b0 2!
1[
b100 0!
#326
0&
07
#327
1&
17
b1 2!
#328
0&
07
#329
1&
17
b10 2!
#330
0&
07
#331
1&
17
0'!
b0 2!
0[
0s
b101 w
0Y
#332
0&
07
#333
1&
17
b1 2!
#334
0&
07
#335
1&
17
b10 2!
#336
0&
07
#337
1&
17
1'!
b0 2!
1[
b101 0!
#338
0&
07
#339
1&
17
b1 2!
#340
0&
07
#341
1&
17
b10 2!
#342
0&
07
#343
1&
17
0'!
b0 2!
0[
1s
b110 w
1Y
#344
0&
07
#345
1&
17
b1 2!
#346
0&
07
#347
1&
17
b10 2!
#348
0&
07
#349
1&
17
1'!
b0 2!
1[
b110011011110101111001101 -!
b110 0!
#350
0&
07
#351
1&
17
b1 2!
#352
0&
07
#353
1&
17
b10 2!
#354
0&
07
#355
1&
17
0'!
b0 2!
0[
0s
b111 w
0Y
#356
0&
07
#357
1&
17
b1 2!
#358
0&
07
#359
1&
17
b10 2!
#360
0&
07
#361
1&
17
1'!
b0 2!
1[
b110011011010101111001101 -!
b111 0!
#362
0&
07
#363
1&
17
b1 2!
#364
0&
07
#365
1&
17
b10 2!
#366
0&
07
#367
1&
17
0'!
b0 2!
0[
1s
b1000 w
1Y
#368
0&
07
#369
1&
17
b1 2!
#370
0&
07
#371
1&
17
b10 2!
#372
0&
07
#373
1&
17
1'!
b0 2!
1[
b1000 0!
#374
0&
07
#375
1&
17
b1 2!
#376
0&
07
#377
1&
17
b10 2!
#378
0&
07
#379
1&
17
0'!
b0 2!
0[
xs
b1001 w
xY
#380
0&
07
#381
1&
17
b1 2!
#382
0&
07
#383
1&
17
b10 2!
#384
0&
07
#385
1&
17
1'!
b0 2!
1[
b100011 .!
b10101011 (!
b0 0!
b0 3!
b0 *!
0]
b10101011 @
bz10101011 D
0z
1{
#386
0&
07
#387
1&
17
b1 2!
#388
0&
07
#389
1&
17
b10 2!
#390
0&
07
#391
1&
17
0'!
b0 2!
0[
b1 3!
0%!
b0 w
b0 v
0B
0!
0M
#392
0&
07
#393
1&
17
b1 2!
#394
0&
07
#395
1&
17
b10 2!
#396
0&
07
#397
1&
17
1'!
b0 2!
1[
zs
zY
#398
0&
07
#399
1&
17
b1 2!
#400
0&
07
#401
1&
17
b10 2!
#402
0&
07
#403
1&
17
0'!
b0 2!
0[
b11010011 =!
b100 >!
b100 *!
1^
1j
0k
1&!
b11 3!
1Z
#404
0&
07
#405
1&
17
b1 2!
#406
0&
07
#407
1&
17
b10 2!
#408
0&
07
#409
1&
17
1'!
b0 2!
1[
b1 f
#410
0&
07
#411
1&
17
b1 2!
#412
0&
07
#413
1&
17
b10 2!
#414
0&
07
#415
1&
17
0'!
b0 2!
0[
b100 3!
#416
0&
07
#417
1&
17
b1 2!
#418
0&
07
#419
1&
17
b10 2!
#420
0&
07
#421
1&
17
1'!
b0 2!
1[
b11 f
#422
0&
07
#423
1&
17
b1 2!
#424
0&
07
#425
1&
17
b10 2!
#426
0&
07
#427
1&
17
0'!
b0 2!
0[
b1 0!
#428
0&
07
#429
1&
17
b1 2!
#430
0&
07
#431
1&
17
b10 2!
#432
0&
07
#433
1&
17
1'!
b0 2!
1[
b1 e
b1 h
#434
0&
07
#435
1&
17
b1 2!
#436
0&
07
#437
1&
17
b10 2!
#438
0&
07
#439
1&
17
0'!
b0 2!
0[
0&!
b10 0!
0Z
#440
0&
07
#441
1&
17
b1 2!
#442
0&
07
#443
1&
17
b10 2!
#444
0&
07
#445
1&
17
1'!
b0 2!
1[
b10 h
#446
0&
07
#447
1&
17
b1 2!
#448
0&
07
#449
1&
17
b10 2!
#450
0&
07
#451
1&
17
0'!
b0 2!
0[
1&!
b11 0!
1Z
#452
0&
07
#453
1&
17
b1 2!
#454
0&
07
#455
1&
17
b10 2!
#456
0&
07
#457
1&
17
1'!
b0 2!
1[
b101 e
b11 h
#458
0&
07
#459
1&
17
b1 2!
#460
0&
07
#461
1&
17
b10 2!
#462
0&
07
#463
1&
17
0'!
b0 2!
0[
b100 0!
#464
0&
07
#465
1&
17
b1 2!
#466
0&
07
#467
1&
17
b10 2!
#468
0&
07
#469
1&
17
1'!
b0 2!
1[
b1101 e
b100 h
#470
0&
07
#471
1&
17
b1 2!
#472
0&
07
#473
1&
17
b10 2!
#474
0&
07
#475
1&
17
0'!
b0 2!
0[
0&!
b101 0!
0Z
#476
0&
07
#477
1&
17
b1 2!
#478
0&
07
#479
1&
17
b10 2!
#480
0&
07
#481
1&
17
1'!
b0 2!
1[
b101 h
#482
0&
07
#483
1&
17
b1 2!
#484
0&
07
#485
1&
17
b10 2!
#486
0&
07
#487
1&
17
0'!
b0 2!
0[
b110 0!
#488
0&
07
#489
1&
17
b1 2!
#490
0&
07
#491
1&
17
b10 2!
#492
0&
07
#493
1&
17
1'!
b0 2!
1[
b110 h
#494
0&
07
#495
1&
17
b1 2!
#496
0&
07
#497
1&
17
b10 2!
#498
0&
07
#499
1&
17
0'!
b0 2!
0[
1&!
b111 0!
1Z
#500
0&
07
#501
1&
17
b1 2!
#502
0&
07
#503
1&
17
b10 2!
#504
0&
07
#505
1&
17
1'!
b0 2!
1[
b1001101 e
b111 h
#506
0&
07
#507
1&
17
b1 2!
#508
0&
07
#509
1&
17
b10 2!
#510
0&
07
#511
1&
17
0'!
b0 2!
0[
b1000 0!
#512
0&
07
#513
1&
17
b1 2!
#514
0&
07
#515
1&
17
b10 2!
#516
0&
07
#517
1&
17
1'!
b0 2!
1[
b11001101 e
b1000 h
#518
0&
07
#519
1&
17
b1 2!
#520
0&
07
#521
1&
17
b10 2!
#522
0&
07
#523
1&
17
0'!
b0 2!
0[
b110001 .!
b0 0!
1%!
b0 3!
b0 *!
b10110001 .!
0^
1B
1!
0j
1k
#524
0&
07
#525
1&
17
0E
b0 R
b1 2!
#526
0&
07
#527
1&
17
1M
b1 G
b1 R
1E
b10 2!
#528
0&
07
#529
1&
17
b10 R
1'!
b0 2!
1[
b1001 h
#530
0&
07
#531
1&
17
b1 2!
#532
0&
07
#533
1&
17
b10 2!
#534
0&
07
#535
1&
17
0'!
b0 2!
0[
#536
0&
07
#537
1&
17
b1 2!
#538
0&
07
#539
1&
17
b10 2!
#540
0&
07
#541
1&
17
1'!
b0 2!
1[
b0 h
b0 f
#542
0&
07
#543
1&
17
b1 2!
#544
0&
07
#545
1&
17
b10 2!
#546
0&
07
#547
1&
17
0'!
b0 2!
0[
#548
0&
07
#549
1&
17
b1 2!
#550
0&
07
#551
1&
17
b10 2!
#552
0&
07
#553
1&
17
1'!
b0 2!
1[
b0 e
#554
0&
07
#555
1&
17
b1 2!
#556
0&
07
#557
1&
17
b10 2!
#558
0&
07
#559
1&
17
0'!
b0 2!
0[
#560
0&
07
#561
1&
17
b1 2!
#562
0&
07
#563
1&
17
b10 2!
#564
0&
07
#565
1&
17
1'!
b0 2!
1[
#566
0&
07
#567
1&
17
b1 2!
#568
0&
07
#569
1&
17
b10 2!
#570
0&
07
#571
1&
17
0'!
b0 2!
0[
#572
0&
07
#573
1&
17
b1 2!
#574
0&
07
#575
1&
17
b10 2!
#576
0&
07
#577
1&
17
1'!
b0 2!
1[
#578
0&
07
#579
1&
17
b1 2!
#580
0&
07
#581
1&
17
b10 2!
#582
0&
07
#583
1&
17
0'!
b0 2!
0[
#584
0&
07
#585
1&
17
b1 2!
#586
0&
07
#587
1&
17
b10 2!
#588
0&
07
#589
1&
17
1'!
b0 2!
1[
#590
0&
07
#591
1&
17
b1 2!
#592
0&
07
#593
1&
17
b10 2!
#594
0&
07
#595
1&
17
0'!
b0 2!
0[
#596
0&
07
#597
1&
17
b1 2!
#598
0&
07
#599
1&
17
b10 2!
#600
0&
07
#601
1&
17
1'!
b0 2!
1[
#602
0&
07
#603
1&
17
b1 2!
#604
0&
07
#605
1&
17
b10 2!
#606
0&
07
#607
1&
17
0'!
b0 2!
0[
#608
0&
07
#609
1&
17
b1 2!
#610
0&
07
#611
1&
17
b10 2!
#612
0&
07
#613
1&
17
1'!
b0 2!
1[
#614
0&
07
#615
1&
17
b1 2!
#616
0&
07
#617
1&
17
b10 2!
#618
0&
07
#619
1&
17
0'!
b0 2!
0[
#620
0&
07
#621
1&
17
b1 2!
#622
0&
07
#623
1&
17
b10 2!
#624
0&
07
#625
1&
17
1'!
b0 2!
1[
#626
0&
07
#627
1&
17
b1 2!
#628
0&
07
#629
1&
17
b10 2!
#630
0&
07
#631
1&
17
0'!
b0 2!
0[
#632
0&
07
#633
1&
17
b1 2!
#634
0&
07
#635
1&
17
b10 2!
#636
0&
07
#637
1&
17
1'!
b0 2!
1[
#638
0&
07
#639
1&
17
b1 2!
#640
0&
07
#641
1&
17
b10 2!
#642
0&
07
#643
1&
17
0'!
b0 2!
0[
#644
0&
07
#645
1&
17
b1 2!
#646
0&
07
#647
1&
17
b10 2!
#648
0&
07
#649
1&
17
1'!
b0 2!
1[
#650
0&
07
#651
1&
17
b1 2!
#652
0&
07
#653
1&
17
b10 2!
#654
0&
07
#655
1&
17
0'!
b0 2!
0[
#656
0&
07
#657
1&
17
b1 2!
#658
0&
07
#659
1&
17
b10 2!
#660
0&
07
#661
1&
17
1'!
b0 2!
1[
#662
0&
07
#663
1&
17
b1 2!
#664
0&
07
#665
1&
17
b10 2!
#666
0&
07
#667
1&
17
0'!
b0 2!
0[
#668
0&
07
#669
1&
17
b1 2!
#670
0&
07
#671
1&
17
b10 2!
#672
0&
07
#673
1&
17
1'!
b0 2!
1[
#674
0&
07
#675
1&
17
b1 2!
#676
0&
07
#677
1&
17
b10 2!
#678
0&
07
#679
1&
17
0'!
b0 2!
0[
#680
0&
07
#681
1&
17
b1 2!
#682
0&
07
#683
1&
17
b10 2!
#684
0&
07
#685
1&
17
1'!
b0 2!
1[
#686
0&
07
#687
1&
17
b1 2!
#688
0&
07
#689
1&
17
b10 2!
#690
0&
07
#691
1&
17
0'!
b0 2!
0[
#692
0&
07
#693
1&
17
b1 2!
#694
0&
07
#695
1&
17
b10 2!
#696
0&
07
#697
1&
17
1'!
b0 2!
1[
#698
0&
07
#699
1&
17
b1 2!
#700
0&
07
#701
1&
17
b10 2!
#702
0&
07
#703
1&
17
0'!
b0 2!
0[
#704
0&
07
#705
1&
17
b1 2!
#706
0&
07
#707
1&
17
b10 2!
#708
0&
07
#709
1&
17
1'!
b0 2!
1[
#710
0&
07
#711
1&
17
b1 2!
#712
0&
07
#713
1&
17
b10 2!
#714
0&
07
#715
1&
17
0'!
b0 2!
0[
#716
0&
07
#717
1&
17
b1 2!
#718
0&
07
#719
1&
17
b10 2!
#720
0&
07
#721
1&
17
1'!
b0 2!
1[
#722
0&
07
#723
1&
17
b1 2!
#724
0&
07
#725
1&
17
b10 2!
#726
0&
07
#727
1&
17
0'!
b0 2!
0[
#728
0&
07
#729
1&
17
b1 2!
#730
0&
07
#731
1&
17
b10 2!
#732
0&
07
#733
1&
17
1'!
b0 2!
1[
#734
0&
07
#735
1&
17
b1 2!
#736
0&
07
#737
1&
17
b10 2!
#738
0&
07
#739
1&
17
0'!
b0 2!
0[
#740
0&
07
#741
1&
17
b1 2!
#742
0&
07
#743
1&
17
b10 2!
#744
0&
07
#745
1&
17
1'!
b0 2!
1[
#746
0&
07
#747
1&
17
b1 2!
#748
0&
07
#749
1&
17
b10 2!
#750
0&
07
#751
1&
17
0'!
b0 2!
0[
#752
0&
07
#753
1&
17
b1 2!
#754
0&
07
#755
1&
17
b10 2!
#756
0&
07
#757
1&
17
1'!
b0 2!
1[
#758
0&
07
#759
1&
17
b1 2!
#760
0&
07
#761
1&
17
b10 2!
#762
0&
07
#763
1&
17
0'!
b0 2!
0[
#764
0&
07
#765
1&
17
b1 2!
#766
0&
07
#767
1&
17
b10 2!
#768
0&
07
#769
1&
17
1'!
b0 2!
1[
#770
0&
07
#771
1&
17
b1 2!
#772
0&
07
